﻿Field=#~Integer~#~50|Field=Designator~String~Designator~246|Field=Quantity~Integer~Quantity~118|Field=Manufacturer~String~Manufacturer~151|Field=Description~String~Description~175|Field=Comment~String~Comment~156|Field=Value~String~Value~111|Field=OrderingCode~String~OrderingCode~194|Field=Supplier 1~String~Supplier 1~153|Field=Supplier Part Number 1~String~Supplier Part Number 1~221|Field=Supplier Unit Price 1~Float~Supplier Unit Price 1~234|ReportField=Currency~<none>|ReportField=ProductionQuantity~1|ReportField=ProjectFileName~FGenMain.PrjPcb|ReportField=ProjectFullPath~C:\IDMV\Repositorios\Electronica\function-generator\Main\FGenMain\FGenMain.PrjPcb|ReportField=Title~BOM_v3 For Project [FGenMain.PrjPcb] (No PCB Document Selected)|ReportField=TotalQuantity~59|ReportField=ReportTime~23:48:23|ReportField=ReportDate~22/08/2019|ReportField=ReportDateTime~22/08/2019 23:48:23|ReportField=OutputName~BOM_v3|ReportField=OutputType~BOM_PartType|ReportField=GeneratorName~BOM|ReportField=GeneratorDescription~Bill of Materials|ReportField=VariantName~None|ReportField=Address1~Ignacio de Mendizabal|ReportField=Address2~nmendiv@gmail.com|ReportField=Address3~+34 685824291|ReportField=Address4~|ReportField=Application_BuildNumber~|ReportField=ApprovedBy~|ReportField=Author~|ReportField=CheckedBy~|ReportField=CompanyName~|ReportField=ConfigurationParameters~|ReportField=ConfiguratorName~|ReportField=CurrentDate~22/08/2019|ReportField=CurrentTime~23:33:01|ReportField=Date~|ReportField=DocumentFullPathAndName~C:\IDMV\Repositorios\Electronica\function-generator\Main\FGenMain\Schematics\Main.SchDoc|ReportField=DocumentName~Main.SchDoc|ReportField=DocumentNumber~2|ReportField=DrawnBy~|ReportField=Engineer~|ReportField=ImagePath~|ReportField=IsUserConfigurable~|ReportField=ModifiedDate~21/08/2019|ReportField=Organization~|ReportField=ProjectName~FGenMain.PrjPcb|ReportField=Revision~A|ReportField=Rule~|ReportField=SheetNumber~1|ReportField=SheetTotal~3|ReportField=Time~|ReportField=Title~Function Generator - A - MCU|ReportField=VersionControl_RevNumber~|ReportField=DataSourceFileName~FGenMain.PrjPcb|ReportField=DataSourceFullPath~C:\IDMV\Repositorios\Electronica\function-generator\Main\FGenMain\FGenMain.PrjPcb
1|C12|1|Kemet|Capacitor SMD|Capacitor|47nF|C1206C473K5RACTU|||
2|C17, C18, C19, C20|4|Kemet|Capacitor SMD|Capacitor|1nF|C1206C102K5RACTU|||
3|C21, C22|2|Kemet|Capacitor SMD|Capacitor|18pF|C0603C180K3GAC|||
4|J5, J6|2|Samtec|Connector, 18 pin Socket Header|1x18 Socket Header|18|SSW-118-01-T-S|Farnell|1804399|
5|U3|1|ST Microelectronics|Microcontroller 16 MHz STM8S 8-bit MCU, up to 8 Kbytes Flash,  data EEPROM,10-bit ADC, 3 timers, UART, SPI, I²C|STM8S103K3T3C||STM8S103K3T3C|Farnell|2333415|
6|Y1|1|EPSON|Oscilator 4MHz|Oscillator 4 pin_EN|75 MHz|XG-1000CA 75.0000M-CBL3|Mouser||
7|Y2|1|Abracon|Crystal 4 pin|ABM8G-24.000MHZ-18-D2Y-T|24MHz|ABM8G-24.000MHZ-18-D2Y-T|||
8|R10|1|Vishay|Resistor, SMD|Resistor|100R|CRCW1206100RJNEA|Mouser|71-CRCW1206J-100-E3|0,09
9|R2, R5, R6, R7|4|Vishay|Resistor, SMD|Resistor|4K7|CRCW12064K70JNEA|Mouser|71-CRCW1206J-4.7K-E3|0,09
10|R19, R20, R21, R22, R23, R24, R25, R26, R27, R28, R29, R30, R31|13|Yageo|Resistor, SMD|Resistor|100R|RC1206FR-07100RL|Mouser|603-RC1206FR-07100RL|0,049
11|C3, C4, C5, C10, C14, C15|6|Kemet|Capacitor SMD|Capacitor|100nF|C1206C104K5RACTU|Mouser|80-C1206C104K5R|0,099
12|J21, J23|2|Samtec|Connector, 1x4 pin Header|1x4 pin Header||M20-9990446|Mouser|855-M20-9990446|0,171
13|C11|1|Kemet|Capacitor SMD|Capacitor|10nF|C1206C103K5RACTU|Mouser|80-C1206C103K5R|0,189
14|R11, R14, R15, R16|4|Yageo|Resistor, SMD|Resistor|10K|RC1206FR-0710KL|Mouser|603-RC1206FR-0710KL|0,207
15|R12, R13|2|Yageo|Resistor, SMD|Resistor|3K3|RC1206FR-073K3L|Mouser|603-RC1206FR-073K3L|0,207
16|R17, R18|2|Yageo|Resistor, SMD|Resistor|4K7|RC1206FR-074K7L|Mouser|603-RC1206FR-074K7L|0,207
17|R3, R4|2|Yageo|Resistor, SMD|Resistor|200R|RC1206FR-07200RL|Mouser|603-RC1206FR-07200RL|0,207
18|R8|1|Yageo|Resistor, SMD|Resistor|6K8|RC1206FR-076K8L|Mouser|603-RC1206FR-076K8L|0,207
19|C6, C7|2|AVX|Capacitor SMD|Capacitor|20pF|12065A200JAT2A|Mouser|581-12065A200J|0,306
20|LD1, LD2|2|Avago Technologies|LED|Green|Green|HSMG-C150|Mouser|630-HSMG-C150|0,387
21|U2|1|Texas Instruments|0.25mA 3V LDO|MCP1702||MCP1702T-3302E/CB|Mouser|579-MCP1702T3302E/CB|0,441
22|C8, C9, C13|3|Kemet|Capacitor SMD|Capacitor|1uF|C1206C105M8RACTU|Mouser|80-C1206C105M8R|0,792
23|U1|1|Analog Devices|20 mW Power, 2.3 V to 5.5 V,  75 MHz Complete DDS|AD9834BRUZ||AD9834BRUZ|Mouser|584-AD9834BRUZ|9,98
